{"pysn-usage": "Converts to dark gray with size 0.2 all pen strokes that aren't size 0.3 and aren't already dark gray.",
"conditions": {"size": [0.1], "color": ["black"], "pages": []},
"output": {"size": 0.1, "color": "dark gray"},
"destination": "D:\\eink\\pysn-digest\\SN_vault\\pen strokes"}