{
    "f": 12,
    "g": 12,
    "p": 12,
    "q": 12,
    "y": 12,
    "'": -15,
    "-": -15,
    ",": 10,
    ".": 10,
    ";": 12,
    "“": -30,
    "”": -30,
    "’": -30,
    "–": -30,
    "\"": -30,
    "^": -30,
    "ª": 40,
    "°": 10}